{
  "project_info": {
    "project_number": "502013561448",
    "firebase_url": "https://firstclap-185305.firebaseio.com",
    "project_id": "firstclap-185305",
    "storage_bucket": "firstclap-185305.appspot.com"
  },
  "client": [
    {
      "client_info": {
        "mobilesdk_app_id": "1:502013561448:android:9cfc8d05983cb69e",
        "android_client_info": {
          "package_name": "com.ramesh.firstclap"
        }
      },
      "oauth_client": [
        {
          "client_id": "502013561448-j1q5bjg4ii1hrspjdbl64v58manrhi6h.apps.googleusercontent.com",
          "client_type": 3
        },
        {
          "client_id": "502013561448-ii73j5vlm623tlujlbgmk0048c3fuoef.apps.googleusercontent.com",
          "client_type": 3
        },
        {
          "client_id": "502013561448-crnvq1ph44gav7nr9cs08dvea9um86lg.apps.googleusercontent.com",
          "client_type": 1,
          "android_info": {
            "package_name": "com.ramesh.firstclap",
            "certificate_hash": "946d8d915acf280500883c2634f15f019776d6d8"
          }
        }
      ],
      "api_key": [
        {
          "current_key": "AIzaSyBlr1a8dRQgBBrZXyf_EV3iJac9osZzpOQ"
        }
      ],
      "services": {
        "analytics_service": {
          "status": 1
        },
        "appinvite_service": {
          "status": 2,
          "other_platform_oauth_client": [
            {
              "client_id": "502013561448-j1q5bjg4ii1hrspjdbl64v58manrhi6h.apps.googleusercontent.com",
              "client_type": 3
            }
          ]
        },
        "ads_service": {
          "status": 2
        }
      }
    }
  ],
  "configuration_version": "1"
}